^C:\USERS\SERGEY\DOCUMENTS\VISUAL STUDIO 2013\PROJECTS\ASVCNC\INTERPRETERG\INTERPRETERG\STDAFX.CPP
C:\USERS\SERGEY\DOCUMENTS\VISUAL STUDIO 2013\PROJECTS\ASVCNC\INTERPRETERG\INTERPRETERG\DEBUG\INTERPRETERG.PCH
C:\USERS\SERGEY\DOCUMENTS\VISUAL STUDIO 2013\PROJECTS\ASVCNC\INTERPRETERG\INTERPRETERG\DEBUG\VC120.PDB
C:\USERS\SERGEY\DOCUMENTS\VISUAL STUDIO 2013\PROJECTS\ASVCNC\INTERPRETERG\INTERPRETERG\DEBUG\STDAFX.OBJ
^C:\USERS\SERGEY\DOCUMENTS\VISUAL STUDIO 2013\PROJECTS\ASVCNC\INTERPRETERG\INTERPRETERG\ASSEMBLYINFO.CPP|C:\USERS\SERGEY\DOCUMENTS\VISUAL STUDIO 2013\PROJECTS\ASVCNC\INTERPRETERG\INTERPRETERG\CANON_PRE.CPP|C:\USERS\SERGEY\DOCUMENTS\VISUAL STUDIO 2013\PROJECTS\ASVCNC\INTERPRETERG\INTERPRETERG\FORMTOOLS.CPP|C:\USERS\SERGEY\DOCUMENTS\VISUAL STUDIO 2013\PROJECTS\ASVCNC\INTERPRETERG\INTERPRETERG\INTERPRETERG.CPP|C:\USERS\SERGEY\DOCUMENTS\VISUAL STUDIO 2013\PROJECTS\ASVCNC\INTERPRETERG\INTERPRETERG\RETURNSTATUS.CPP|C:\USERS\SERGEY\DOCUMENTS\VISUAL STUDIO 2013\PROJECTS\ASVCNC\INTERPRETERG\INTERPRETERG\RS274NGC_PRE.CPP
C:\USERS\SERGEY\DOCUMENTS\VISUAL STUDIO 2013\PROJECTS\ASVCNC\INTERPRETERG\INTERPRETERG\DEBUG\VC120.PDB
C:\USERS\SERGEY\DOCUMENTS\VISUAL STUDIO 2013\PROJECTS\ASVCNC\INTERPRETERG\INTERPRETERG\DEBUG\RS274NGC_PRE.OBJ
C:\USERS\SERGEY\DOCUMENTS\VISUAL STUDIO 2013\PROJECTS\ASVCNC\INTERPRETERG\INTERPRETERG\DEBUG\RETURNSTATUS.OBJ
C:\USERS\SERGEY\DOCUMENTS\VISUAL STUDIO 2013\PROJECTS\ASVCNC\INTERPRETERG\INTERPRETERG\DEBUG\INTERPRETERG.OBJ
C:\USERS\SERGEY\DOCUMENTS\VISUAL STUDIO 2013\PROJECTS\ASVCNC\INTERPRETERG\INTERPRETERG\DEBUG\FORMTOOLS.OBJ
C:\USERS\SERGEY\DOCUMENTS\VISUAL STUDIO 2013\PROJECTS\ASVCNC\INTERPRETERG\INTERPRETERG\DEBUG\CANON_PRE.OBJ
C:\USERS\SERGEY\DOCUMENTS\VISUAL STUDIO 2013\PROJECTS\ASVCNC\INTERPRETERG\INTERPRETERG\DEBUG\ASSEMBLYINFO.OBJ
^C:\USERS\SERGEY\DOCUMENTS\VISUAL STUDIO 2013\PROJECTS\ASVCNC\INTERPRETERG\INTERPRETERG\ASSEMBLYINFO.CPP
C:\USERS\SERGEY\DOCUMENTS\VISUAL STUDIO 2013\PROJECTS\ASVCNC\INTERPRETERG\INTERPRETERG\DEBUG\VC120.PDB
^C:\USERS\SERGEY\DOCUMENTS\VISUAL STUDIO 2013\PROJECTS\ASVCNC\INTERPRETERG\INTERPRETERG\CANON_PRE.CPP
C:\USERS\SERGEY\DOCUMENTS\VISUAL STUDIO 2013\PROJECTS\ASVCNC\INTERPRETERG\INTERPRETERG\DEBUG\VC120.PDB
^C:\USERS\SERGEY\DOCUMENTS\VISUAL STUDIO 2013\PROJECTS\ASVCNC\INTERPRETERG\INTERPRETERG\FORMTOOLS.CPP
C:\USERS\SERGEY\DOCUMENTS\VISUAL STUDIO 2013\PROJECTS\ASVCNC\INTERPRETERG\INTERPRETERG\DEBUG\VC120.PDB
^C:\USERS\SERGEY\DOCUMENTS\VISUAL STUDIO 2013\PROJECTS\ASVCNC\INTERPRETERG\INTERPRETERG\INTERPRETERG.CPP
C:\USERS\SERGEY\DOCUMENTS\VISUAL STUDIO 2013\PROJECTS\ASVCNC\INTERPRETERG\INTERPRETERG\DEBUG\VC120.PDB
^C:\USERS\SERGEY\DOCUMENTS\VISUAL STUDIO 2013\PROJECTS\ASVCNC\INTERPRETERG\INTERPRETERG\RETURNSTATUS.CPP
C:\USERS\SERGEY\DOCUMENTS\VISUAL STUDIO 2013\PROJECTS\ASVCNC\INTERPRETERG\INTERPRETERG\DEBUG\VC120.PDB
^C:\USERS\SERGEY\DOCUMENTS\VISUAL STUDIO 2013\PROJECTS\ASVCNC\INTERPRETERG\INTERPRETERG\RS274NGC_PRE.CPP
C:\USERS\SERGEY\DOCUMENTS\VISUAL STUDIO 2013\PROJECTS\ASVCNC\INTERPRETERG\INTERPRETERG\DEBUG\VC120.PDB
^C:\USERS\SERGEY\APPDATA\LOCAL\TEMP\.NETFRAMEWORK,VERSION=V4.5.ASSEMBLYATTRIBUTES.CPP
C:\USERS\SERGEY\DOCUMENTS\VISUAL STUDIO 2013\PROJECTS\ASVCNC\INTERPRETERG\INTERPRETERG\DEBUG\VC120.PDB
C:\USERS\SERGEY\DOCUMENTS\VISUAL STUDIO 2013\PROJECTS\ASVCNC\INTERPRETERG\INTERPRETERG\DEBUG\.NETFRAMEWORK,VERSION=V4.5.ASSEMBLYATTRIBUTES.OBJ
