^C:\DOCUMENTS AND SETTINGS\SERGEY\MY DOCUMENTS\VISUAL STUDIO 2010\PROJECTS\LB\BUTTON\LBBUTTON.RESX|C:\DOCUMENTS AND SETTINGS\SERGEY\MY DOCUMENTS\VISUAL STUDIO 2010\PROJECTS\LB\KNOB\LBKNOB.RESX|C:\DOCUMENTS AND SETTINGS\SERGEY\MY DOCUMENTS\VISUAL STUDIO 2010\PROJECTS\LB\LED\LB7SEGMENTDISPLAY.RESX|C:\DOCUMENTS AND SETTINGS\SERGEY\MY DOCUMENTS\VISUAL STUDIO 2010\PROJECTS\LB\LED\LBLED.RESX|C:\DOCUMENTS AND SETTINGS\SERGEY\MY DOCUMENTS\VISUAL STUDIO 2010\PROJECTS\LB\METERS\LBDIGITALMETER.RESX
C:\DOCUMENTS AND SETTINGS\SERGEY\MY DOCUMENTS\VISUAL STUDIO 2010\PROJECTS\LB\OBJ\DEBUG\LBSOFT.INDUSTRIALCTRLS.BUTTONS.LBBUTTON.RESOURCES
C:\DOCUMENTS AND SETTINGS\SERGEY\MY DOCUMENTS\VISUAL STUDIO 2010\PROJECTS\LB\OBJ\DEBUG\LBSOFT.INDUSTRIALCTRLS.KNOBS.LBKNOB.RESOURCES
C:\DOCUMENTS AND SETTINGS\SERGEY\MY DOCUMENTS\VISUAL STUDIO 2010\PROJECTS\LB\OBJ\DEBUG\LBSOFT.INDUSTRIALCTRLS.LEDS.LBLED.RESOURCES
C:\DOCUMENTS AND SETTINGS\SERGEY\MY DOCUMENTS\VISUAL STUDIO 2010\PROJECTS\LB\OBJ\DEBUG\LBSOFT.INDUSTRIALCTRLS.LEDS.LB7SEGMENTDISPLAY.RESOURCES
C:\DOCUMENTS AND SETTINGS\SERGEY\MY DOCUMENTS\VISUAL STUDIO 2010\PROJECTS\LB\OBJ\DEBUG\LBSOFT.INDUSTRIALCTRLS.METERS.LBDIGITALMETER.RESOURCES
^C:\DOCUMENTS AND SETTINGS\SERGEY\МОИ ДОКУМЕНТЫ\VISUAL STUDIO 2010\PROJECTS\LB\BUTTON\LBBUTTON.RESX|C:\DOCUMENTS AND SETTINGS\SERGEY\МОИ ДОКУМЕНТЫ\VISUAL STUDIO 2010\PROJECTS\LB\KNOB\LBKNOB.RESX|C:\DOCUMENTS AND SETTINGS\SERGEY\МОИ ДОКУМЕНТЫ\VISUAL STUDIO 2010\PROJECTS\LB\LED\LB7SEGMENTDISPLAY.RESX|C:\DOCUMENTS AND SETTINGS\SERGEY\МОИ ДОКУМЕНТЫ\VISUAL STUDIO 2010\PROJECTS\LB\LED\LBLED.RESX|C:\DOCUMENTS AND SETTINGS\SERGEY\МОИ ДОКУМЕНТЫ\VISUAL STUDIO 2010\PROJECTS\LB\METERS\LBDIGITALMETER.RESX
C:\DOCUMENTS AND SETTINGS\SERGEY\Мои документы\VISUAL STUDIO 2010\PROJECTS\LB\OBJ\DEBUG\LBSOFT.INDUSTRIALCTRLS.BUTTONS.LBBUTTON.RESOURCES
C:\DOCUMENTS AND SETTINGS\SERGEY\Мои документы\VISUAL STUDIO 2010\PROJECTS\LB\OBJ\DEBUG\LBSOFT.INDUSTRIALCTRLS.KNOBS.LBKNOB.RESOURCES
C:\DOCUMENTS AND SETTINGS\SERGEY\Мои документы\VISUAL STUDIO 2010\PROJECTS\LB\OBJ\DEBUG\LBSOFT.INDUSTRIALCTRLS.LEDS.LB7SEGMENTDISPLAY.RESOURCES
C:\DOCUMENTS AND SETTINGS\SERGEY\Мои документы\VISUAL STUDIO 2010\PROJECTS\LB\OBJ\DEBUG\LBSOFT.INDUSTRIALCTRLS.LEDS.LBLED.RESOURCES
C:\DOCUMENTS AND SETTINGS\SERGEY\Мои документы\VISUAL STUDIO 2010\PROJECTS\LB\OBJ\DEBUG\LBSOFT.INDUSTRIALCTRLS.METERS.LBDIGITALMETER.RESOURCES
^C:\DOCUMENTS AND SETTINGS\SERGEY\МОИ ДОКУМЕНТЫ\VISUAL STUDIO 2010\PROJECTS\WATERMETRRF\LB\BUTTON\LBBUTTON.RESX|C:\DOCUMENTS AND SETTINGS\SERGEY\МОИ ДОКУМЕНТЫ\VISUAL STUDIO 2010\PROJECTS\WATERMETRRF\LB\KNOB\LBKNOB.RESX|C:\DOCUMENTS AND SETTINGS\SERGEY\МОИ ДОКУМЕНТЫ\VISUAL STUDIO 2010\PROJECTS\WATERMETRRF\LB\LED\LB7SEGMENTDISPLAY.RESX|C:\DOCUMENTS AND SETTINGS\SERGEY\МОИ ДОКУМЕНТЫ\VISUAL STUDIO 2010\PROJECTS\WATERMETRRF\LB\LED\LBLED.RESX|C:\DOCUMENTS AND SETTINGS\SERGEY\МОИ ДОКУМЕНТЫ\VISUAL STUDIO 2010\PROJECTS\WATERMETRRF\LB\METERS\LBDIGITALMETER.RESX
C:\DOCUMENTS AND SETTINGS\SERGEY\Мои документы\VISUAL STUDIO 2010\PROJECTS\WATERMETRRF\LB\OBJ\DEBUG\LBSOFT.INDUSTRIALCTRLS.BUTTONS.LBBUTTON.RESOURCES
C:\DOCUMENTS AND SETTINGS\SERGEY\Мои документы\VISUAL STUDIO 2010\PROJECTS\WATERMETRRF\LB\OBJ\DEBUG\LBSOFT.INDUSTRIALCTRLS.KNOBS.LBKNOB.RESOURCES
C:\DOCUMENTS AND SETTINGS\SERGEY\Мои документы\VISUAL STUDIO 2010\PROJECTS\WATERMETRRF\LB\OBJ\DEBUG\LBSOFT.INDUSTRIALCTRLS.LEDS.LB7SEGMENTDISPLAY.RESOURCES
C:\DOCUMENTS AND SETTINGS\SERGEY\Мои документы\VISUAL STUDIO 2010\PROJECTS\WATERMETRRF\LB\OBJ\DEBUG\LBSOFT.INDUSTRIALCTRLS.LEDS.LBLED.RESOURCES
C:\DOCUMENTS AND SETTINGS\SERGEY\Мои документы\VISUAL STUDIO 2010\PROJECTS\WATERMETRRF\LB\OBJ\DEBUG\LBSOFT.INDUSTRIALCTRLS.METERS.LBDIGITALMETER.RESOURCES
^C:\DOCUMENTS AND SETTINGS\SERGEY\MY DOCUMENTS\VISUAL STUDIO 2010\PROJECTS\PROJECTS\WATERMETRRF\LB\BUTTON\LBBUTTON.RESX|C:\DOCUMENTS AND SETTINGS\SERGEY\MY DOCUMENTS\VISUAL STUDIO 2010\PROJECTS\PROJECTS\WATERMETRRF\LB\KNOB\LBKNOB.RESX|C:\DOCUMENTS AND SETTINGS\SERGEY\MY DOCUMENTS\VISUAL STUDIO 2010\PROJECTS\PROJECTS\WATERMETRRF\LB\LED\LB7SEGMENTDISPLAY.RESX|C:\DOCUMENTS AND SETTINGS\SERGEY\MY DOCUMENTS\VISUAL STUDIO 2010\PROJECTS\PROJECTS\WATERMETRRF\LB\LED\LBLED.RESX|C:\DOCUMENTS AND SETTINGS\SERGEY\MY DOCUMENTS\VISUAL STUDIO 2010\PROJECTS\PROJECTS\WATERMETRRF\LB\METERS\LBDIGITALMETER.RESX
C:\DOCUMENTS AND SETTINGS\SERGEY\MY DOCUMENTS\VISUAL STUDIO 2010\PROJECTS\PROJECTS\WATERMETRRF\LB\OBJ\DEBUG\LBSOFT.INDUSTRIALCTRLS.BUTTONS.LBBUTTON.RESOURCES
C:\DOCUMENTS AND SETTINGS\SERGEY\MY DOCUMENTS\VISUAL STUDIO 2010\PROJECTS\PROJECTS\WATERMETRRF\LB\OBJ\DEBUG\LBSOFT.INDUSTRIALCTRLS.KNOBS.LBKNOB.RESOURCES
C:\DOCUMENTS AND SETTINGS\SERGEY\MY DOCUMENTS\VISUAL STUDIO 2010\PROJECTS\PROJECTS\WATERMETRRF\LB\OBJ\DEBUG\LBSOFT.INDUSTRIALCTRLS.LEDS.LB7SEGMENTDISPLAY.RESOURCES
C:\DOCUMENTS AND SETTINGS\SERGEY\MY DOCUMENTS\VISUAL STUDIO 2010\PROJECTS\PROJECTS\WATERMETRRF\LB\OBJ\DEBUG\LBSOFT.INDUSTRIALCTRLS.LEDS.LBLED.RESOURCES
C:\DOCUMENTS AND SETTINGS\SERGEY\MY DOCUMENTS\VISUAL STUDIO 2010\PROJECTS\PROJECTS\WATERMETRRF\LB\OBJ\DEBUG\LBSOFT.INDUSTRIALCTRLS.METERS.LBDIGITALMETER.RESOURCES
^C:\DOCUMENTS AND SETTINGS\SERGEY\MY DOCUMENTS\VISUAL STUDIO 2010\PROJECTS\VIEWASV1801\LB\BUTTON\LBBUTTON.RESX|C:\DOCUMENTS AND SETTINGS\SERGEY\MY DOCUMENTS\VISUAL STUDIO 2010\PROJECTS\VIEWASV1801\LB\KNOB\LBKNOB.RESX|C:\DOCUMENTS AND SETTINGS\SERGEY\MY DOCUMENTS\VISUAL STUDIO 2010\PROJECTS\VIEWASV1801\LB\LED\LB7SEGMENTDISPLAY.RESX|C:\DOCUMENTS AND SETTINGS\SERGEY\MY DOCUMENTS\VISUAL STUDIO 2010\PROJECTS\VIEWASV1801\LB\LED\LBLED.RESX|C:\DOCUMENTS AND SETTINGS\SERGEY\MY DOCUMENTS\VISUAL STUDIO 2010\PROJECTS\VIEWASV1801\LB\METERS\LBDIGITALMETER.RESX
C:\DOCUMENTS AND SETTINGS\SERGEY\MY DOCUMENTS\VISUAL STUDIO 2010\PROJECTS\VIEWASV1801\LB\OBJ\DEBUG\LBSOFT.INDUSTRIALCTRLS.BUTTONS.LBBUTTON.RESOURCES
C:\DOCUMENTS AND SETTINGS\SERGEY\MY DOCUMENTS\VISUAL STUDIO 2010\PROJECTS\VIEWASV1801\LB\OBJ\DEBUG\LBSOFT.INDUSTRIALCTRLS.KNOBS.LBKNOB.RESOURCES
C:\DOCUMENTS AND SETTINGS\SERGEY\MY DOCUMENTS\VISUAL STUDIO 2010\PROJECTS\VIEWASV1801\LB\OBJ\DEBUG\LBSOFT.INDUSTRIALCTRLS.LEDS.LB7SEGMENTDISPLAY.RESOURCES
C:\DOCUMENTS AND SETTINGS\SERGEY\MY DOCUMENTS\VISUAL STUDIO 2010\PROJECTS\VIEWASV1801\LB\OBJ\DEBUG\LBSOFT.INDUSTRIALCTRLS.LEDS.LBLED.RESOURCES
C:\DOCUMENTS AND SETTINGS\SERGEY\MY DOCUMENTS\VISUAL STUDIO 2010\PROJECTS\VIEWASV1801\LB\OBJ\DEBUG\LBSOFT.INDUSTRIALCTRLS.METERS.LBDIGITALMETER.RESOURCES
